%YAML 1.1
%TAG !u! tag:unity3d.com,2011:
--- !u!114 &11400000
MonoBehaviour:
  m_ObjectHideFlags: 0
  m_CorrespondingSourceObject: {fileID: 0}
  m_PrefabInstance: {fileID: 0}
  m_PrefabAsset: {fileID: 0}
  m_GameObject: {fileID: 0}
  m_Enabled: 1
  m_EditorHideFlags: 0
  m_Script: {fileID: 11500000, guid: a7c6afd02f1824a2290d0ed5975ff970, type: 3}
  m_Name: Blank
  m_EditorClassIdentifier: 
  color: {r: 1, g: 1, b: 1, a: 1}
  sprite: {fileID: 0}
